minipaper2-opendatatoronto
…
ttc_delay_statistics <- ttc_delay_resources %>%
  slice(5) %>%
  get_resource()

ttc_tibble <- map_dfr(ttc_delay_statistics, ~tibble(
  station = .x$Station,
  code = .x$Code,
  min_delay = .x$`Min Delay`
))

ttc_tibble

# A tibble: 20,737 × 3
   station               code  min_delay
   <chr>                 <chr>     <dbl>
 1 SHEPPARD WEST STATION MUATC        10
 2 DUNDAS STATION        MUNCA         0
 3 MUSEUM STATION        MUSC          0
 4 BAY LOWER             EUOE          0
 5 MUSEUM STATION        MUO           6
 6 BLOOR DANFORTH SUBWAY MUGD          0
 7 KIPLING STATION       MUSAN         3
 8 UNION STATION         MUIS          0
 9 COLLEGE STATION       SUDP          7
10 KIPLING STATION       SUDP          0
# ℹ 20,727 more rows

ttc_tibble%>%filter(min_delay > 0)

# A tibble: 7,168 × 3
   station               code  min_delay
   <chr>                 <chr>     <dbl>
 1 SHEPPARD WEST STATION MUATC        10
 2 MUSEUM STATION        MUO           6
 3 KIPLING STATION       MUSAN         3
 4 COLLEGE STATION       SUDP          7
 5 WARDEN STATION        MUI           3
 6 DONLANDS STATION      TUNOA         4
 7 KEELE STATION         TUNOA         4
 8 DONLANDS STATION      TUNOA         4
 9 KENNEDY SRT STATION   ERTC          7
10 VICTORIA PARK STATION EUDO          6
# ℹ 7,158 more rows
…
